…
    ## ✔ ggplot2 3.1.0     ✔ purrr   0.2.5
    ## ✔ tibble  2.0.1     ✔ dplyr   0.7.8
    ## ✔ tidyr   0.8.2     ✔ stringr 1.3.1
    ## ✔ readr   1.3.1     ✔ forcats 0.3.0

    ## ── Conflicts ──────────────────────────────────────────────────────── tidyverse_conflicts() ──
    ## ✖ dplyr::filter() masks stats::filter()
    ## ✖ dplyr::lag()    masks stats::lag()

``` r
msleep
```

    ## # A tibble: 83 x 11
    ##    name  genus vore  order conservation sleep_total sleep_rem sleep_cycle
    ##    <chr> <chr> <chr> <chr> <chr>              <dbl>     <dbl>       <dbl>
    ##  1 Chee… Acin… carni Carn… lc                  12.1      NA        NA    
    ##  2 Owl … Aotus omni  Prim… <NA>                17         1.8      NA    
    ##  3 Moun… Aplo… herbi Rode… nt                  14.4       2.4      NA    
    ##  4 Grea… Blar… omni  Sori… lc                  14.9       2.3       0.133
    ##  5 Cow   Bos   herbi Arti… domesticated         4         0.7       0.667
    ##  6 Thre… Brad… herbi Pilo… <NA>                14.4       2.2       0.767
    ##  7 Nort… Call… carni Carn… vu                   8.7       1.4       0.383
    ##  8 Vesp… Calo… <NA>  Rode… <NA>                 7        NA        NA    
    ##  9 Dog   Canis carni Carn… domesticated        10.1       2.9       0.333
    ## 10 Roe … Capr… herbi Arti… lc                   3        NA        NA    
    ## # … with 73 more rows, and 3 more variables: awake <dbl>, brainwt <dbl>,
    ## #   bodywt <dbl>
…
