…
    ## # A tibble: 0 x 12
    ## # … with 12 variables: User_ID <dbl>, Product_ID <chr>, Gender <chr>,
    ## #   Age <chr>, Occupation <dbl>, City_Category <chr>,
    ## #   Stay_In_Current_City_Years <chr>, Marital_Status <dbl>,
    ## #   Product_Category_1 <dbl>, Product_Category_2 <dbl>,
    ## #   Product_Category_3 <dbl>, Purchase <dbl>

``` r
blackfriday_cat <- blackfriday %>% 
  gather(Product_Category_1, Product_Category_2, Product_Category_3, key = "Prod_Category", value = "Prod_Category_ID") %>%  
  filter(!is.na(Prod_Category_ID))
blackfriday
```

    ## # A tibble: 537,577 x 12
    ##    User_ID Product_ID Gender Age   Occupation City_Category
    ##      <dbl> <chr>      <chr>  <chr>      <dbl> <chr>        
    ##  1 1000001 P00069042  F      0-17          10 A            
    ##  2 1000001 P00248942  F      0-17          10 A            
    ##  3 1000001 P00087842  F      0-17          10 A            
    ##  4 1000001 P00085442  F      0-17          10 A            
    ##  5 1000002 P00285442  M      55+           16 C            
    ##  6 1000003 P00193542  M      26-35         15 A            
    ##  7 1000004 P00184942  M      46-50          7 B            
    ##  8 1000004 P00346142  M      46-50          7 B            
    ##  9 1000004 P0097242   M      46-50          7 B            
    ## 10 1000005 P00274942  M      26-35         20 A            
    ## # … with 537,567 more rows, and 6 more variables:
    ## #   Stay_In_Current_City_Years <chr>, Marital_Status <dbl>,
    ## #   Product_Category_1 <dbl>, Product_Category_2 <dbl>,
    ## #   Product_Category_3 <dbl>, Purchase <dbl>
…
