…
For carrier EV, it seems like to be cancelled more often than B6, UA AND DL. And carrier DL seems like to be cancelled the least often. And the origin LGA seems to have more prop\_cancelled in total than EWR and JFK.

Question 3
----------

To investigate if there is any pattern of flight cancellations depending on the time of year, I first create a `canceled_by_doy` dataset with the proportion of canceled flights for each day of the year (`doy`) and `origin`:

``` r
flights %>% transmute(doy = as.integer(strftime(time_hour, format = "%j")))
```

    ## # A tibble: 336,776 x 1
    ##      doy
    ##    <int>
    ##  1     1
    ##  2     1
    ##  3     1
    ##  4     1
    ##  5     1
    ##  6     1
    ##  7     1
    ##  8     1
    ##  9     1
    ## 10     1
    ## # … with 336,766 more rows

``` r
cancelled_by_doy <- flights %>% mutate(doy=as.integer(strftime(time_hour, format = "%j"))) %>%
  group_by(doy,origin) %>% summarize(prop_cancelled=mean(is.na(dep_delay) & is.na(arr_delay)))
print(cancelled_by_doy)
```

    ## # A tibble: 1,095 x 3
    ## # Groups:   doy [?]
    ##      doy origin prop_cancelled
    ##    <int> <chr>           <dbl>
    ##  1     1 EWR           0.00328
    ##  2     1 JFK           0.00337
    ##  3     1 LGA           0.00833
    ##  4     2 EWR           0.0171 
    ##  5     2 JFK           0.00312
    ##  6     2 LGA           0.00368
    ##  7     3 EWR           0.00893
    ##  8     3 JFK           0      
    ##  9     3 LGA           0.0269 
    ## 10     4 EWR           0.00590
    ## # … with 1,085 more rows
…
