…
    ## [1] row      col      expected actual  
    ## <0 rows> (or 0-length row.names)

Question 2
----------

There are many "unusual" values, including tax exempt properties. Next, I'm filtering out these cases to get a new dataset, `property_rep`.

``` r
property_rep <- property %>% group_by(PTYPE) %>% filter(median(GROSS_TAX)<100000000 & n()>=5) %>% filter(GROSS_TAX!=0) %>% ungroup()
property_rep
```

    ## # A tibble: 153,652 x 4
    ##    PTYPE LU    GROSS_TAX NUM_FLOORS
    ##    <int> <chr>     <int>      <dbl>
    ##  1   105 R3       506289          3
    ##  2   105 R3       557641          3
    ##  3   105 R3       507546          3
    ##  4   105 R3       484910          3
    ##  5   104 R2       494552          3
    ##  6   105 R3       595474          3
    ##  7   105 R3       640852          3
    ##  8   105 R3       658354          3
    ##  9   105 R3       549362          3
    ## 10   105 R3       316496          3
    ## # … with 153,642 more rows
…
