…
    ## (Intercept) 
    ##    21.96295

Question 3
----------

``` r
rep_flights <- flights %>% group_by(carrier) %>% filter(n_distinct(flight) > 100) %>% group_by(carrier, flight) %>% filter(n()>50) %>% ungroup()
flights_load <- flights %>% group_by(month, day, origin) %>% summarize(trips=n())
flightdb2 <- inner_join(flights_load, rep_flights, by = c("month", "day","origin"))
flightdb2 <- flightdb2 %>% mutate(ontime = ifelse(!is.na(dep_delay) & !is.na(arr_delay) & arr_delay <= 15, 1,0))
flightdb2
```

    ## # A tibble: 271,632 x 21
    ## # Groups:   month, day [365]
    ##    month   day origin trips  year dep_time sched_dep_time dep_delay
    ##    <int> <int> <chr>  <int> <int>    <int>          <int>     <dbl>
    ##  1     1     1 EWR      305  2013      517            515         2
    ##  2     1     1 EWR      305  2013      555            600        -5
    ##  3     1     1 EWR      305  2013      606            610        -4
    ##  4     1     1 EWR      305  2013      607            607         0
    ##  5     1     1 EWR      305  2013      608            600         8
    ##  6     1     1 EWR      305  2013      615            615         0
    ##  7     1     1 EWR      305  2013      628            630        -2
    ##  8     1     1 EWR      305  2013      632            608        24
    ##  9     1     1 EWR      305  2013      644            636         8
    ## 10     1     1 EWR      305  2013      646            645         1
    ## # … with 271,622 more rows, and 13 more variables: arr_time <int>,
    ## #   sched_arr_time <int>, arr_delay <dbl>, carrier <chr>, flight <int>,
    ## #   tailnum <chr>, dest <chr>, air_time <dbl>, distance <dbl>, hour <dbl>,
    ## #   minute <dbl>, time_hour <dttm>, ontime <dbl>
…
``` r
rep_flights <- flights %>%
  group_by(carrier) %>% filter(n_distinct(flight) > 100) %>%
  group_by(carrier, flight) %>% filter(n() > 50) %>% ungroup()
```

``` r
flights_load <- rep_flights %>% group_by(origin,month,day) %>% summarize(trips=n())
flights_ontime <- inner_join(rep_flights,flights_load,by=c("origin","month","day"))%>%mutate(ontime=ifelse(!is.na(arr_delay)&arr_delay<=15,1,0))
flights_load
```

    ## # A tibble: 1,095 x 4
    ## # Groups:   origin, month [?]
    ##    origin month   day trips
    ##    <chr>  <int> <int> <int>
    ##  1 EWR        1     1   181
    ##  2 EWR        1     2   216
    ##  3 EWR        1     3   216
    ##  4 EWR        1     4   224
    ##  5 EWR        1     5   130
    ##  6 EWR        1     6   191
    ##  7 EWR        1     7   230
    ##  8 EWR        1     8   225
    ##  9 EWR        1     9   233
    ## 10 EWR        1    10   235
    ## # … with 1,085 more rows
…
